…
We can then generate a dataframe of the infection and recovery times for further analysis.

```julia
df = DataFrame(infection_time=Tᵢ, recovery_time=Tᵣ)
```

```
80×2 DataFrame
 Row │ infection_time  recovery_time
     │ Float64         Float64
─────┼───────────────────────────────
   1 │        0.0            5.89809
   2 │        7.86056        9.8487
   3 │       15.83          16.4511
   4 │       26.3444        30.75
   5 │        7.2055        15.5016
   6 │       25.0911        34.6082
   7 │       25.5869        30.338
   8 │       21.0997        25.3224
  ⋮  │       ⋮               ⋮
  74 │        9.78415       11.9463
  75 │        3.58814       24.3936
  76 │       30.4535        32.2539
  77 │        7.96843       14.3423
  78 │       25.6141        34.0446
  79 │       15.3823        20.5103
  80 │       20.6359        21.9287
                      65 rows omitted
```
…
